<svg xmlns="http://www.w3.org/2000/svg" width="21.461" height="13" viewBox="0 0 21.461 13">
  <path id="Icon_arrow_up" data-name="Icon arrow_up" d="M-13,26.4l10-9.231h0L-13,7.938" transform="translate(-6.437 -1.5) rotate(-90)" fill="none" stroke="#ffb81f" stroke-linecap="round" stroke-linejoin="round" stroke-width="3"/>
</svg>
